%YAML 1.1
%TAG !u! tag:unity3d.com,2011:
--- !u!114 &-8836889809905227053
MonoBehaviour:
  m_ObjectHideFlags: 0
  m_CorrespondingSourceObject: {fileID: 0}
  m_PrefabInstance: {fileID: 0}
  m_PrefabAsset: {fileID: 0}
  m_GameObject: {fileID: 0}
  m_Enabled: 1
  m_EditorHideFlags: 0
  m_Script: {fileID: 11500000, guid: 0e255057e460d8a448fcefbdbf4363fb, type: 3}
  m_Name: 
  m_EditorClassIdentifier: 
  requiredAmount: 1
  goalCompleted:
    m_PersistentCalls:
      m_Calls: []
  nameEnemy: 
--- !u!114 &-8225678892469293090
MonoBehaviour:
  m_ObjectHideFlags: 0
  m_CorrespondingSourceObject: {fileID: 0}
  m_PrefabInstance: {fileID: 0}
  m_PrefabAsset: {fileID: 0}
  m_GameObject: {fileID: 0}
  m_Enabled: 1
  m_EditorHideFlags: 0
  m_Script: {fileID: 11500000, guid: 0e255057e460d8a448fcefbdbf4363fb, type: 3}
  m_Name: 
  m_EditorClassIdentifier: 
  requiredAmount: 1
  goalCompleted:
    m_PersistentCalls:
      m_Calls: []
  nameEnemy: 
--- !u!114 &-3795659094349456834
MonoBehaviour:
  m_ObjectHideFlags: 0
  m_CorrespondingSourceObject: {fileID: 0}
  m_PrefabInstance: {fileID: 0}
  m_PrefabAsset: {fileID: 0}
  m_GameObject: {fileID: 0}
  m_Enabled: 1
  m_EditorHideFlags: 0
  m_Script: {fileID: 11500000, guid: 0e255057e460d8a448fcefbdbf4363fb, type: 3}
  m_Name: 
  m_EditorClassIdentifier: 
  requiredAmount: 1
  goalCompleted:
    m_PersistentCalls:
      m_Calls: []
  nameEnemy: 
--- !u!114 &-930833643676819074
MonoBehaviour:
  m_ObjectHideFlags: 0
  m_CorrespondingSourceObject: {fileID: 0}
  m_PrefabInstance: {fileID: 0}
  m_PrefabAsset: {fileID: 0}
  m_GameObject: {fileID: 0}
  m_Enabled: 1
  m_EditorHideFlags: 0
  m_Script: {fileID: 11500000, guid: 0e255057e460d8a448fcefbdbf4363fb, type: 3}
  m_Name: 
  m_EditorClassIdentifier: 
  requiredAmount: 1
  goalCompleted:
    m_PersistentCalls:
      m_Calls: []
  nameEnemy: 
--- !u!114 &-655701184339863124
MonoBehaviour:
  m_ObjectHideFlags: 0
  m_CorrespondingSourceObject: {fileID: 0}
  m_PrefabInstance: {fileID: 0}
  m_PrefabAsset: {fileID: 0}
  m_GameObject: {fileID: 0}
  m_Enabled: 1
  m_EditorHideFlags: 0
  m_Script: {fileID: 11500000, guid: 0e255057e460d8a448fcefbdbf4363fb, type: 3}
  m_Name: 
  m_EditorClassIdentifier: 
  requiredAmount: 1
  goalCompleted:
    m_PersistentCalls:
      m_Calls: []
  nameEnemy: 
--- !u!114 &11400000
MonoBehaviour:
  m_ObjectHideFlags: 0
  m_CorrespondingSourceObject: {fileID: 0}
  m_PrefabInstance: {fileID: 0}
  m_PrefabAsset: {fileID: 0}
  m_GameObject: {fileID: 0}
  m_Enabled: 1
  m_EditorHideFlags: 0
  m_Script: {fileID: 11500000, guid: f425657783d66a846835953e606c28c5, type: 3}
  m_Name: Quest
  m_EditorClassIdentifier: 
  infomation:
    name: Kill enemy
    icon: {fileID: 0}
    description: Kill  you can
  reward:
    currency: 10
    xp: 10
  goals:
  - {fileID: 745016270053544139}
  - {fileID: 4061475935586653571}
  - {fileID: 9121314193378221052}
  - {fileID: 4372443748838445982}
--- !u!114 &745016270053544139
MonoBehaviour:
  m_ObjectHideFlags: 0
  m_CorrespondingSourceObject: {fileID: 0}
  m_PrefabInstance: {fileID: 0}
  m_PrefabAsset: {fileID: 0}
  m_GameObject: {fileID: 0}
  m_Enabled: 1
  m_EditorHideFlags: 0
  m_Script: {fileID: 11500000, guid: 0e255057e460d8a448fcefbdbf4363fb, type: 3}
  m_Name: 
  m_EditorClassIdentifier: 
  requiredAmount: 20
  goalCompleted:
    m_PersistentCalls:
      m_Calls: []
  nameEnemy: Ethan1
--- !u!114 &4061475935586653571
MonoBehaviour:
  m_ObjectHideFlags: 0
  m_CorrespondingSourceObject: {fileID: 0}
  m_PrefabInstance: {fileID: 0}
  m_PrefabAsset: {fileID: 0}
  m_GameObject: {fileID: 0}
  m_Enabled: 1
  m_EditorHideFlags: 0
  m_Script: {fileID: 11500000, guid: 0e255057e460d8a448fcefbdbf4363fb, type: 3}
  m_Name: 
  m_EditorClassIdentifier: 
  requiredAmount: 10
  goalCompleted:
    m_PersistentCalls:
      m_Calls: []
  nameEnemy: EthanV
--- !u!114 &4372443748838445982
MonoBehaviour:
  m_ObjectHideFlags: 0
  m_CorrespondingSourceObject: {fileID: 0}
  m_PrefabInstance: {fileID: 0}
  m_PrefabAsset: {fileID: 0}
  m_GameObject: {fileID: 0}
  m_Enabled: 1
  m_EditorHideFlags: 0
  m_Script: {fileID: 11500000, guid: 0e255057e460d8a448fcefbdbf4363fb, type: 3}
  m_Name: 
  m_EditorClassIdentifier: 
  requiredAmount: 1
  goalCompleted:
    m_PersistentCalls:
      m_Calls: []
  nameEnemy: Ethan boss
--- !u!114 &4842774040614528685
MonoBehaviour:
  m_ObjectHideFlags: 0
  m_CorrespondingSourceObject: {fileID: 0}
  m_PrefabInstance: {fileID: 0}
  m_PrefabAsset: {fileID: 0}
  m_GameObject: {fileID: 0}
  m_Enabled: 1
  m_EditorHideFlags: 0
  m_Script: {fileID: 11500000, guid: 0e255057e460d8a448fcefbdbf4363fb, type: 3}
  m_Name: 
  m_EditorClassIdentifier: 
  requiredAmount: 1
  goalCompleted:
    m_PersistentCalls:
      m_Calls: []
  nameEnemy: 
--- !u!114 &7419646567808594086
MonoBehaviour:
  m_ObjectHideFlags: 0
  m_CorrespondingSourceObject: {fileID: 0}
  m_PrefabInstance: {fileID: 0}
  m_PrefabAsset: {fileID: 0}
  m_GameObject: {fileID: 0}
  m_Enabled: 1
  m_EditorHideFlags: 0
  m_Script: {fileID: 11500000, guid: 0e255057e460d8a448fcefbdbf4363fb, type: 3}
  m_Name: 
  m_EditorClassIdentifier: 
  requiredAmount: 1
  goalCompleted:
    m_PersistentCalls:
      m_Calls: []
  nameEnemy: 
--- !u!114 &9121314193378221052
MonoBehaviour:
  m_ObjectHideFlags: 0
  m_CorrespondingSourceObject: {fileID: 0}
  m_PrefabInstance: {fileID: 0}
  m_PrefabAsset: {fileID: 0}
  m_GameObject: {fileID: 0}
  m_Enabled: 1
  m_EditorHideFlags: 0
  m_Script: {fileID: 11500000, guid: 0e255057e460d8a448fcefbdbf4363fb, type: 3}
  m_Name: 
  m_EditorClassIdentifier: 
  requiredAmount: 5
  goalCompleted:
    m_PersistentCalls:
      m_Calls: []
  nameEnemy: ProEthan
